…
if (nrow(war_peace) == 0 || any(is.na(war_peace$day))) {
  tibble::tibble()
} else {
  war_peace
}
#> # A tibble: 2,942 × 3
#>    day        term  count
#>    <date>     <chr> <int>
#>  1 2022-02-24 war       0
#>  2 2022-02-24 peace     0
#>  3 2022-02-25 war       0
#>  4 2022-02-25 peace     0
#>  5 2022-02-26 war       0
#>  6 2022-02-26 peace     0
#>  7 2022-02-27 war       0
#>  8 2022-02-27 peace     0
#>  9 2022-02-28 war       0
#> 10 2022-02-28 peace     0
#> # ℹ 2,932 more rows
```
…
